%YAML 1.1
%TAG !u! tag:unity3d.com,2011:
--- !u!114 &11400000
MonoBehaviour:
  m_ObjectHideFlags: 0
  m_CorrespondingSourceObject: {fileID: 0}
  m_PrefabInstance: {fileID: 0}
  m_PrefabAsset: {fileID: 0}
  m_GameObject: {fileID: 0}
  m_Enabled: 1
  m_EditorHideFlags: 0
  m_Script: {fileID: 11500000, guid: ec1dadf9bf3d35247942afbcaf48e0c0, type: 3}
  m_Name: Dialogue_Level1_Perdido2_Message00
  m_EditorClassIdentifier: 
  transmitter: Caminante de las sombras
  message: Ya no sigas, no hay nada mas alla para nosotros...
