%YAML 1.1
%TAG !u! tag:unity3d.com,2011:
--- !u!114 &11400000
MonoBehaviour:
  m_ObjectHideFlags: 0
  m_CorrespondingSourceObject: {fileID: 0}
  m_PrefabInstance: {fileID: 0}
  m_PrefabAsset: {fileID: 0}
  m_GameObject: {fileID: 0}
  m_Enabled: 1
  m_EditorHideFlags: 0
  m_Script: {fileID: 11500000, guid: ec1dadf9bf3d35247942afbcaf48e0c0, type: 3}
  m_Name: Dialogue_Level1_Capa_02_Message02
  m_EditorClassIdentifier: 
  transmitter: Capa de luz
  message: No siento ninguna esfera cerca, tendremos que explorar.
