%YAML 1.1
%TAG !u! tag:unity3d.com,2011:
--- !u!114 &11400000
MonoBehaviour:
  m_ObjectHideFlags: 0
  m_CorrespondingSourceObject: {fileID: 0}
  m_PrefabInstance: {fileID: 0}
  m_PrefabAsset: {fileID: 0}
  m_GameObject: {fileID: 0}
  m_Enabled: 1
  m_EditorHideFlags: 0
  m_Script: {fileID: 11500000, guid: b3d63a50ae5bf3940bd4a8789a6112a6, type: 3}
  m_Name: Dialogue_Level3_Event01
  m_EditorClassIdentifier: 
  transmitter: Caminante de las sombras
  message: Huye!
