%YAML 1.1
%TAG !u! tag:unity3d.com,2011:
--- !u!114 &11400000
MonoBehaviour:
  m_ObjectHideFlags: 0
  m_CorrespondingSourceObject: {fileID: 0}
  m_PrefabInstance: {fileID: 0}
  m_PrefabAsset: {fileID: 0}
  m_GameObject: {fileID: 0}
  m_Enabled: 1
  m_EditorHideFlags: 0
  m_Script: {fileID: 11500000, guid: 2eb02ddd8da571e4da8531eb1fe84379, type: 3}
  m_Name: Dialogue_Level1_Capa_03
  m_EditorClassIdentifier: 
  dialog_modules:
  - {fileID: 11400000, guid: 147aecf1ee458b2459138a5a153a3fa2, type: 2}
