%YAML 1.1
%TAG !u! tag:unity3d.com,2011:
--- !u!114 &11400000
MonoBehaviour:
  m_ObjectHideFlags: 0
  m_CorrespondingSourceObject: {fileID: 0}
  m_PrefabInstance: {fileID: 0}
  m_PrefabAsset: {fileID: 0}
  m_GameObject: {fileID: 0}
  m_Enabled: 1
  m_EditorHideFlags: 0
  m_Script: {fileID: 11500000, guid: dea1bc0a8c761944b95857bc34963161, type: 3}
  m_Name: State
  m_EditorClassIdentifier: 
  interactions:
  - {fileID: 11400000, guid: a4bc816b57306e846875e0a364f25a66, type: 2}
